<svg width="40" height="31" viewBox="0 0 40 31" fill="none" xmlns="http://www.w3.org/2000/svg">
<path d="M0 0.620117V15.6201H10C10 21.1701 5.55 25.6201 0 25.6201V30.6201C8.25 30.6201 15 23.8701 15 15.6201V0.620117H0ZM25 0.620117V15.6201H35C35 21.1701 30.55 25.6201 25 25.6201V30.6201C33.25 30.6201 40 23.8701 40 15.6201V0.620117H25Z" fill="#010F14"/>
</svg>
