<svg width="26" height="23" viewBox="0 0 26 23" fill="none" xmlns="http://www.w3.org/2000/svg">
<path d="M25.0607 10.5593C25.6464 11.1451 25.6464 12.0949 25.0607 12.6807L15.5147 22.2266C14.9289 22.8124 13.9792 22.8124 13.3934 22.2266C12.8076 21.6408 12.8076 20.6911 13.3934 20.1053L21.8787 11.62L13.3934 3.13471C12.8076 2.54893 12.8076 1.59918 13.3934 1.01339C13.9792 0.427607 14.9289 0.427607 15.5147 1.01339L25.0607 10.5593ZM0 10.12L24 10.12V13.12L0 13.12L0 10.12Z" fill="#010F14"/>
</svg>
